<svg xmlns="http://www.w3.org/2000/svg" width="22" height="17.829" viewBox="0 0 22 17.829">
  <g id="Icon-Arrow-Right" transform="translate(1 1.414)">
    <path id="Path_21" data-name="Path 21" d="M7.5,18h20" transform="translate(-7.5 -10.5)" fill="none" stroke="#09c" stroke-linecap="round" stroke-linejoin="round" stroke-width="2"/>
    <path id="Path_22" data-name="Path 22" d="M18,7.5,25.5,15,18,22.5" transform="translate(-5.5 -7.5)" fill="none" stroke="#09c" stroke-linecap="round" stroke-linejoin="round" stroke-width="2"/>
  </g>
</svg>
